ST588 Homework 9
…
data5 <- data4 |>
  group_by(date, seasons, holiday) |>
  summarise(sumCount = sum(rentedBikeCount),
            sumRain = sum(rainfallmm),
            sumSnow = sum(snowfallcm),
            meanTemp = mean(tempC),
            meanHumidity = mean(humidityPct),
            meanWind = mean(windM_S),
            meanVis = mean(vis),
            meanDP_C = mean(dewPointTempC),
            meanSR = mean(solarRadiation))
data5

# A tibble: 353 × 12
# Groups:   date, seasons [353]
   date       seasons holiday    sumCount sumRain sumSnow meanTemp meanHumidity
   <date>     <fct>   <fct>         <dbl>   <dbl>   <dbl>    <dbl>        <dbl>
 1 2017-12-01 Winter  No Holiday     9539     0       0    -2.45           45.9
 2 2017-12-02 Winter  No Holiday     8523     0       0     1.32           62.0
 3 2017-12-03 Winter  No Holiday     7222     4       0     4.88           81.5
 4 2017-12-04 Winter  No Holiday     8729     0.1     0    -0.304          52.5
 5 2017-12-05 Winter  No Holiday     8307     0       0    -4.46           36.4
 6 2017-12-06 Winter  No Holiday     6669     1.3     8.6   0.0458         70.8
 7 2017-12-07 Winter  No Holiday     8549     0      10.4   1.09           67.5
 8 2017-12-08 Winter  No Holiday     8032     0       0    -3.82           41.8
 9 2017-12-09 Winter  No Holiday     7233     0       0    -0.846          46  
10 2017-12-10 Winter  No Holiday     3453     4.1    32.5   1.19           69.7
# ℹ 343 more rows
# ℹ 4 more variables: meanWind <dbl>, meanVis <dbl>, meanDP_C <dbl>,
#   meanSR <dbl>
…
Split the Data

We’ll split the data into a training and test set (75/25). We’ll use the strata argument to stratify the split on the seasons variable.

First, we’ll use the initial_split(), training(), and testing() functions to create the splits:

set.seed(10)
#create split with 75% data in training set and 25% in test set, and name the sets
rental_split <- initial_split(data5, prop = 0.75, strata ="seasons")
rental_train <- training(rental_split)
rental_test <- testing(rental_split)
rental_train

# A tibble: 263 × 12
# Groups:   date, seasons [263]
   date       seasons holiday    sumCount sumRain sumSnow meanTemp meanHumidity
   <date>     <fct>   <fct>         <dbl>   <dbl>   <dbl>    <dbl>        <dbl>
 1 2018-09-02 Autumn  No Holiday    26881     0         0     25.0         54.5
 2 2018-09-03 Autumn  No Holiday    10802    34.5       0     23.6         82.2
 3 2018-09-04 Autumn  No Holiday    29529     0         0     23.3         71.6
 4 2018-09-07 Autumn  No Holiday    30381     1.5       0     22.2         56.9
 5 2018-09-08 Autumn  No Holiday    29813     0         0     21.7         48.7
 6 2018-09-09 Autumn  No Holiday    28354     0         0     22.0         49.5
 7 2018-09-11 Autumn  No Holiday    31694     0         0     21.6         48.0
 8 2018-09-13 Autumn  No Holiday    30991     0         0     23.4         62.3
 9 2018-09-14 Autumn  No Holiday    28199     0.5       0     23.5         67.2
10 2018-09-15 Autumn  No Holiday    25079     0.2       0     23.2         75.9
# ℹ 253 more rows
# ℹ 4 more variables: meanWind <dbl>, meanVis <dbl>, meanDP_C <dbl>,
#   meanSR <dbl>
…
for(i in 1:10){
  if (i<10) {
    fold_index <- seq(from = (i-1)*size_fold + 1, to = i*size_fold, by=1)
    folds[[i]] <- rental_train[random_indices[fold_index], ]
  } else {
    fold_index <- seq(from = (i-1)*size_fold +1, to=length(random_indices), by =1)
    folds[[i]] <- rental_train[random_indices[fold_index], ]
  }
}

#check out the first fold:
folds[[1]]

# A tibble: 26 × 12
# Groups:   date, seasons [26]
   date       seasons holiday    sumCount sumRain sumSnow meanTemp meanHumidity
   <date>     <fct>   <fct>         <dbl>   <dbl>   <dbl>    <dbl>        <dbl>
 1 2018-06-14 Summer  No Holiday    23818    29       0      21.7          74.4
 2 2018-03-20 Spring  No Holiday    11515     0       0       5.04         40.6
 3 2017-12-18 Winter  No Holiday     2620     3.4    59.7    -1.97         77  
 4 2018-06-22 Summer  No Holiday    34079     0       0      24.7          47.9
 5 2018-10-08 Autumn  No Holiday    29362     0       0      14.7          46.5
 6 2018-09-20 Autumn  No Holiday    14282     5       0      19.0          80.2
 7 2018-05-11 Spring  No Holiday    26649     0       0      15.8          63.5
 8 2018-09-11 Autumn  No Holiday    31694     0       0      21.6          48.0
 9 2018-01-12 Winter  No Holiday     4111     0       0     -10.7          36.2
10 2018-01-13 Winter  No Holiday     3503     0.4     2.2    -4.56         63.8
# ℹ 16 more rows
# ℹ 4 more variables: meanWind <dbl>, meanVis <dbl>, meanDP_C <dbl>,
#   meanSR <dbl>

Let’s check out the 10th fold…does it contain 29 observations?

folds[[10]]

# A tibble: 29 × 12
# Groups:   date, seasons [29]
   date       seasons holiday    sumCount sumRain sumSnow meanTemp meanHumidity
   <date>     <fct>   <fct>         <dbl>   <dbl>   <dbl>    <dbl>        <dbl>
 1 2018-03-25 Spring  No Holiday    10963     0         0     9.62         65.8
 2 2018-07-22 Summer  No Holiday    18563     0         0    31.6          50.9
 3 2018-04-26 Spring  No Holiday    25670     0         0    15.1          50.1
 4 2018-09-02 Autumn  No Holiday    26881     0         0    25.0          54.5
 5 2018-04-23 Spring  No Holiday      977    61         0     9.43         93.8
 6 2018-05-29 Spring  No Holiday    24355     1         0    21.5          66.4
 7 2018-03-30 Spring  No Holiday    19301     0         0    14.7          55.0
 8 2018-06-29 Summer  No Holiday    30297     6.5       0    24.7          79.2
 9 2018-05-27 Spring  No Holiday    28991     0         0    20.6          42.1
10 2018-02-11 Winter  No Holiday     2850     0         0    -5.99         40.5
# ℹ 19 more rows
# ℹ 4 more variables: meanWind <dbl>, meanVis <dbl>, meanDP_C <dbl>,
#   meanSR <dbl>
…
#fit model 3
rental_fit3 <- rental_wfl_3 %>%
  fit(rental_train)
rental_fit3 %>%
  tidy()

# A tibble: 21 × 5
   term               estimate std.error statistic  p.value
   <chr>                 <dbl>     <dbl>     <dbl>    <dbl>
 1 (Intercept)          16531.     1269.   13.0    9.46e-30
 2 seasons_Spring       -4578.      865.   -5.29   2.71e- 7
 3 seasons_Summer        -160.     1167.   -0.137  8.91e- 1
 4 seasons_Winter       -4079.     1312.   -3.11   2.10e- 3
 5 holiday_No.Holiday    3723.     1124.    3.31   1.07e- 3
 6 sumRain_poly_1      -30478.     6320.   -4.82   2.50e- 6
 7 sumRain_poly_2        3347.     4445.    0.753  4.52e- 1
 8 sumSnow_poly_1        -136.     4647.   -0.0293 9.77e- 1
 9 sumSnow_poly_2       -4268.     4375.   -0.976  3.30e- 1
10 meanTemp_poly_1    -229695.    89008.   -2.58   1.05e- 2
# ℹ 11 more rows
…
Let’s show the LASSO penalty metrics:

LASSO_grid_1[1, ".metrics"][[1]]

[[1]]
# A tibble: 400 × 5
    penalty .metric .estimator .estimate .config               
      <dbl> <chr>   <chr>          <dbl> <chr>                 
 1 1   e-10 rmse    standard       5172. Preprocessor1_Model001
 2 1.12e-10 rmse    standard       5172. Preprocessor1_Model002
 3 1.26e-10 rmse    standard       5172. Preprocessor1_Model003
 4 1.41e-10 rmse    standard       5172. Preprocessor1_Model004
 5 1.59e-10 rmse    standard       5172. Preprocessor1_Model005
 6 1.78e-10 rmse    standard       5172. Preprocessor1_Model006
 7 2.00e-10 rmse    standard       5172. Preprocessor1_Model007
 8 2.25e-10 rmse    standard       5172. Preprocessor1_Model008
 9 2.52e-10 rmse    standard       5172. Preprocessor1_Model009
10 2.83e-10 rmse    standard       5172. Preprocessor1_Model010
# ℹ 390 more rows

Then, we’ll collect those metrics that include RMSE:

LASSO_grid_1 %>%
  collect_metrics() %>%
  filter(.metric == "rmse")

# A tibble: 200 × 7
    penalty .metric .estimator  mean     n std_err .config               
      <dbl> <chr>   <chr>      <dbl> <int>   <dbl> <chr>                 
 1 1   e-10 rmse    standard   4413.    10    191. Preprocessor1_Model001
 2 1.12e-10 rmse    standard   4413.    10    191. Preprocessor1_Model002
 3 1.26e-10 rmse    standard   4413.    10    191. Preprocessor1_Model003
 4 1.41e-10 rmse    standard   4413.    10    191. Preprocessor1_Model004
 5 1.59e-10 rmse    standard   4413.    10    191. Preprocessor1_Model005
 6 1.78e-10 rmse    standard   4413.    10    191. Preprocessor1_Model006
 7 2.00e-10 rmse    standard   4413.    10    191. Preprocessor1_Model007
 8 2.25e-10 rmse    standard   4413.    10    191. Preprocessor1_Model008
 9 2.52e-10 rmse    standard   4413.    10    191. Preprocessor1_Model009
10 2.83e-10 rmse    standard   4413.    10    191. Preprocessor1_Model010
# ℹ 190 more rows
…
Let’s show the LASSO penalty metrics for models 2…:

LASSO_grid_2[1, ".metrics"][[1]]

[[1]]
# A tibble: 400 × 5
    penalty .metric .estimator .estimate .config               
      <dbl> <chr>   <chr>          <dbl> <chr>                 
 1 1   e-10 rmse    standard       3196. Preprocessor1_Model001
 2 1.12e-10 rmse    standard       3196. Preprocessor1_Model002
 3 1.26e-10 rmse    standard       3196. Preprocessor1_Model003
 4 1.41e-10 rmse    standard       3196. Preprocessor1_Model004
 5 1.59e-10 rmse    standard       3196. Preprocessor1_Model005
 6 1.78e-10 rmse    standard       3196. Preprocessor1_Model006
 7 2.00e-10 rmse    standard       3196. Preprocessor1_Model007
 8 2.25e-10 rmse    standard       3196. Preprocessor1_Model008
 9 2.52e-10 rmse    standard       3196. Preprocessor1_Model009
10 2.83e-10 rmse    standard       3196. Preprocessor1_Model010
# ℹ 390 more rows

…And let’s show the LASSO penalty metrics for model 3:

LASSO_grid_3[1, ".metrics"][[1]]

[[1]]
# A tibble: 400 × 5
    penalty .metric .estimator .estimate .config               
      <dbl> <chr>   <chr>          <dbl> <chr>                 
 1 1   e-10 rmse    standard       4489. Preprocessor1_Model001
 2 1.12e-10 rmse    standard       4489. Preprocessor1_Model002
 3 1.26e-10 rmse    standard       4489. Preprocessor1_Model003
 4 1.41e-10 rmse    standard       4489. Preprocessor1_Model004
 5 1.59e-10 rmse    standard       4489. Preprocessor1_Model005
 6 1.78e-10 rmse    standard       4489. Preprocessor1_Model006
 7 2.00e-10 rmse    standard       4489. Preprocessor1_Model007
 8 2.25e-10 rmse    standard       4489. Preprocessor1_Model008
 9 2.52e-10 rmse    standard       4489. Preprocessor1_Model009
10 2.83e-10 rmse    standard       4489. Preprocessor1_Model010
# ℹ 390 more rows
…
